That’s what Nicola said
…
# Import

---

## 🏁 Start with

<img src="img/fm-speeches.png" width="75%" style="display: block; margin: auto;" />

---

## End with 🛑

```
## # A tibble: 218 x 6
##    title     date       location   abstract     text     url     
##    <chr>     <date>     <chr>      <chr>        <chr>    <chr>   
##  1 Coronavi… 2021-04-20 St Andrew… Statement g… "Good a… https:/…
##  2 Coronavi… 2021-04-13 St Andrew… Statement g… "Thanks… https:/…
##  3 Coronavi… 2021-04-06 St Andrew… Statement g… "Good a… https:/…
##  4 Coronavi… 2021-03-30 St Andrew… Statement g… "Thanks… https:/…
##  5 Coronavi… 2021-03-24 Scottish … Statement g… "Thank … https:/…
##  6 Coronavi… 2021-03-23 The Scott… Statement g… "Presid… https:/…
##  7 Coronavi… 2021-03-18 Scottish … Statement g… "Thank … https:/…
##  8 Coronavi… 2021-03-17 St Andrew… Statement g… "\nGood… https:/…
##  9 Coronavi… 2021-03-16 Scottish … Statement g… "Presid… https:/…
## 10 Coronavi… 2021-03-15 St Andrew… Statement g… "\nGood… https:/…
## 11 Coronavi… 2021-03-11 Scottish … Statement g… "I can … https:/…
## 12 Coronavi… 2021-03-09 Scottish … Statement g… "Presid… https:/…
## 13 Coronavi… 2021-03-05 Scottish … Parliamenta… "Hello.… https:/…
## 14 Coronavi… 2021-03-04 Scottish … Parliamenta… "I will… https:/…
## 15 Coronavi… 2021-03-02 Scottish … Statement g… "Presid… https:/…
## # … with 203 more rows
```
…
---

## Plan: Get data from all pages

- Write a function that scrapes the data from a single page and returns a data frame with a single row for that page

- Obtain a list of URLs of all pages

- Map the function over the list of all URLs to obtain a data framw where each row is a single speech and the number of rows is the number of speeches

```
## # A tibble: 218 x 6
##    title     date       location   abstract     text     url     
##    <chr>     <date>     <chr>      <chr>        <chr>    <chr>   
##  1 Coronavi… 2021-04-20 St Andrew… Statement g… "Good a… https:/…
##  2 Coronavi… 2021-04-13 St Andrew… Statement g… "Thanks… https:/…
##  3 Coronavi… 2021-04-06 St Andrew… Statement g… "Good a… https:/…
##  4 Coronavi… 2021-03-30 St Andrew… Statement g… "Thanks… https:/…
##  5 Coronavi… 2021-03-24 Scottish … Statement g… "Thank … https:/…
##  6 Coronavi… 2021-03-23 The Scott… Statement g… "Presid… https:/…
##  7 Coronavi… 2021-03-18 Scottish … Statement g… "Thank … https:/…
##  8 Coronavi… 2021-03-17 St Andrew… Statement g… "\nGood… https:/…
##  9 Coronavi… 2021-03-16 Scottish … Statement g… "Presid… https:/…
## 10 Coronavi… 2021-03-15 St Andrew… Statement g… "\nGood… https:/…
## # … with 208 more rows
```
…
---

## Map the function over all URLs

```r
covid_speeches_scot <- map_dfr(covid_speech_urls_uk_scot, scrape_speech_scot)
```

```r
covid_speeches_scot
```

```
## # A tibble: 218 x 6
##    title     date       location   abstract     text     url     
##    <chr>     <date>     <chr>      <chr>        <chr>    <chr>   
##  1 Coronavi… 2021-04-20 St Andrew… Statement g… "Good a… https:/…
##  2 Coronavi… 2021-04-13 St Andrew… Statement g… "Thanks… https:/…
##  3 Coronavi… 2021-04-06 St Andrew… Statement g… "Good a… https:/…
##  4 Coronavi… 2021-03-30 St Andrew… Statement g… "Thanks… https:/…
##  5 Coronavi… 2021-03-24 Scottish … Statement g… "Thank … https:/…
##  6 Coronavi… 2021-03-23 The Scott… Statement g… "Presid… https:/…
##  7 Coronavi… 2021-03-18 Scottish … Statement g… "Thank … https:/…
##  8 Coronavi… 2021-03-17 St Andrew… Statement g… "\nGood… https:/…
##  9 Coronavi… 2021-03-16 Scottish … Statement g… "Presid… https:/…
## 10 Coronavi… 2021-03-15 St Andrew… Statement g… "\nGood… https:/…
## # … with 208 more rows
```
…
# Transform and visualise

---

## Filter for First minister speeches

```r
covid_speeches_scot <- covid_speeches_scot %>%
  filter(str_detect(abstract, "First Minister"))

covid_speeches_scot
```

```
## # A tibble: 215 x 6
##    title     date       location   abstract     text     url     
##    <chr>     <date>     <chr>      <chr>        <chr>    <chr>   
##  1 Coronavi… 2021-04-20 St Andrew… Statement g… "Good a… https:/…
##  2 Coronavi… 2021-04-13 St Andrew… Statement g… "Thanks… https:/…
##  3 Coronavi… 2021-04-06 St Andrew… Statement g… "Good a… https:/…
##  4 Coronavi… 2021-03-30 St Andrew… Statement g… "Thanks… https:/…
##  5 Coronavi… 2021-03-24 Scottish … Statement g… "Thank … https:/…
##  6 Coronavi… 2021-03-23 The Scott… Statement g… "Presid… https:/…
##  7 Coronavi… 2021-03-18 Scottish … Statement g… "Thank … https:/…
##  8 Coronavi… 2021-03-17 St Andrew… Statement g… "\nGood… https:/…
##  9 Coronavi… 2021-03-16 Scottish … Statement g… "Presid… https:/…
## 10 Coronavi… 2021-03-15 St Andrew… Statement g… "\nGood… https:/…
## # … with 205 more rows
```
---

## Count number of words in each speech

```r
covid_speeches_scot <- covid_speeches_scot %>%
  rowwise() %>%
  mutate(n_words = text %>% str_count("\\w+") %>% sum()) %>%
  ungroup()

covid_speeches_scot
```

```
## # A tibble: 215 x 7
##    title   date       location  abstract   text    url    n_words
##    <chr>   <date>     <chr>     <chr>      <chr>   <chr>    <int>
##  1 Corona… 2021-04-20 St Andre… Statement… "Good … https…    2997
##  2 Corona… 2021-04-13 St Andre… Statement… "Thank… https…    2719
##  3 Corona… 2021-04-06 St Andre… Statement… "Good … https…    2707
##  4 Corona… 2021-03-30 St Andre… Statement… "Thank… https…    1753
##  5 Corona… 2021-03-24 Scottish… Statement… "Thank… https…     623
##  6 Corona… 2021-03-23 The Scot… Statement… "Presi… https…    3055
##  7 Corona… 2021-03-18 Scottish… Statement… "Thank… https…     612
##  8 Corona… 2021-03-17 St Andre… Statement… "\nGoo… https…    2131
##  9 Corona… 2021-03-16 Scottish… Statement… "Presi… https…    3355
## 10 Corona… 2021-03-15 St Andre… Statement… "\nGoo… https…    2081
## # … with 205 more rows
```
…
covid_speeches_scot_words %>% print(n = 15)
```
]

.panel[.panel-name[Output]

```
## # A tibble: 445,221 x 7
##    date       word   title    location abstract   url     n_words
##    <date>     <chr>  <chr>    <chr>    <chr>      <chr>     <int>
##  1 2021-04-20 good   Coronav… St Andr… Statement… https:…    2997
##  2 2021-04-20 after… Coronav… St Andr… Statement… https:…    2997
##  3 2021-04-20 thanks Coronav… St Andr… Statement… https:…    2997
##  4 2021-04-20 for    Coronav… St Andr… Statement… https:…    2997
##  5 2021-04-20 tuning Coronav… St Andr… Statement… https:…    2997
##  6 2021-04-20 in     Coronav… St Andr… Statement… https:…    2997
##  7 2021-04-20 today  Coronav… St Andr… Statement… https:…    2997
##  8 2021-04-20 i      Coronav… St Andr… Statement… https:…    2997
##  9 2021-04-20 am     Coronav… St Andr… Statement… https:…    2997
## 10 2021-04-20 joined Coronav… St Andr… Statement… https:…    2997
## 11 2021-04-20 by     Coronav… St Andr… Statement… https:…    2997
## 12 2021-04-20 the    Coronav… St Andr… Statement… https:…    2997
## 13 2021-04-20 chief  Coronav… St Andr… Statement… https:…    2997
## 14 2021-04-20 medic… Coronav… St Andr… Statement… https:…    2997
## 15 2021-04-20 offic… Coronav… St Andr… Statement… https:…    2997
## # … with 445,206 more rows
```
]
]

---

## Common words

```r
covid_speeches_scot_words %>%
  count(word, sort = TRUE)
```

```
## # A tibble: 8,572 x 2
##    word      n
##    <chr> <int>
##  1 the   20455
##  2 to    17134
##  3 of    13526
##  4 and   13429
##  5 that  11162
##  6 in     9112
##  7 we     8260
##  8 is     6992
##  9 a      6700
## 10 i      5929
## # … with 8,562 more rows
```

---

## Common words, without stop words

```r
covid_speeches_scot_words <- covid_speeches_scot_words %>%
  anti_join(stop_words)

covid_speeches_scot_words %>%
  count(word, sort = TRUE)
```

```
## # A tibble: 7,990 x 2
##    word             n
##    <chr>        <int>
##  1 people        2866
##  2 virus         1711
##  3 scotland      1344
##  4 yesterday     1044
##  5 restrictions   980
##  6 care           958
##  7 health         947
##  8 total          926
##  9 covid          892
## 10 deaths         885
## # … with 7,980 more rows
```
…
---

## Tokenize into sentences

```r
covid_speeches_sentences <- covid_speeches %>%
  tidytext::unnest_tokens(sentence, text, token = "sentences")

covid_speeches_sentences %>%
  relocate(sentence)
```

```
## # A tibble: 21,723 x 4
##    sentence                           speech_id date       origin
##    <chr>                              <chr>     <date>     <fct> 
##  1 good afternoon, thanks for tuning… 1         2021-04-20 Scotl…
##  2 i am joined by the chief medical … 1         2021-04-20 Scotl…
##  3 as you  probably know the main pu… 1         2021-04-20 Scotl…
##  4 these changes include the full re… 1         2021-04-20 Scotl…
##  5 before i talk in a bit more detai… 1         2021-04-20 Scotl…
##  6 the total number of cases reporte… 1         2021-04-20 Scotl…
##  7 which is 1.4% of the total number… 1         2021-04-20 Scotl…
##  8 and 13 people are in intensive ca… 1         2021-04-20 Scotl…
##  9 unfortunately 2 deaths were repor… 1         2021-04-20 Scotl…
## 10 and yet again, i want to send my … 1         2021-04-20 Scotl…
## # … with 21,713 more rows
```
…
.panel[.panel-name[Output]

```r
param_grid
```

```
## # A tibble: 25 x 2
##    penalty max_tokens
##      <dbl>      <int>
##  1  0.0001        500
##  2  0.001         500
##  3  0.01          500
##  4  0.1           500
##  5  1             500
##  6  0.0001        750
##  7  0.001         750
##  8  0.01          750
##  9  0.1           750
## 10  1             750
## # … with 15 more rows
```
…
---

## View model metrics

```r
collect_metrics(covid_fit_rs_tune_ds)
```

```
## # A tibble: 50 x 8
##    penalty max_tokens .metric  .estimator  mean     n std_err
##      <dbl>      <int> <chr>    <chr>      <dbl> <int>   <dbl>
##  1  0.0001        500 accuracy binary     0.726    10 0.00397
##  2  0.0001        500 roc_auc  binary     0.823    10 0.00548
##  3  0.001         500 accuracy binary     0.732    10 0.00359
##  4  0.001         500 roc_auc  binary     0.829    10 0.00548
##  5  0.01          500 accuracy binary     0.780    10 0.00786
##  6  0.01          500 roc_auc  binary     0.835    10 0.00355
##  7  0.1           500 accuracy binary     0.500    10 0.136  
##  8  0.1           500 roc_auc  binary     0.5      10 0      
##  9  1             500 accuracy binary     0.500    10 0.136  
## 10  1             500 roc_auc  binary     0.5      10 0      
## # … with 40 more rows, and 1 more variable: .config <chr>
```
…
.panel[.panel-name[Output]

```r
vi_data_ds
```

```
## # A tibble: 506 x 3
##    Variable     Importance Sign 
##    <chr>             <dbl> <chr>
##  1 scotland           6.21 NEG  
##  2 coronavirus        5.87 POS  
##  3 covid_secure       4.93 POS  
##  4 mr                 4.69 POS  
##  5 british            4.22 POS  
##  6 total_number       4.15 NEG  
##  7 alert              3.82 POS  
##  8 level_4            3.82 NEG  
##  9 28_days            3.59 NEG  
## 10 vaccines           3.56 POS  
## # … with 496 more rows
```
…
