tidyverse to tidymodels
…
# Import

---

## 🏁 Start with

<img src="img/fm-speeches.png" width="75%" style="display: block; margin: auto;" />

---

## End with 🛑

```
## # A tibble: 207 x 6
##    title     date       location   abstract     text     url     
##    <chr>     <date>     <chr>      <chr>        <chr>    <chr>   
##  1 Coronavi… 2021-03-09 Scottish … Statement g… "Presid… https:/…
##  2 Coronavi… 2021-03-05 Scottish … Parliamenta… "Hello.… https:/…
##  3 Coronavi… 2021-03-04 Scottish … Parliamenta… "I will… https:/…
##  4 Coronavi… 2021-03-02 Scottish … Statement g… "Presid… https:/…
##  5 Coronavi… 2021-02-25 Scottish … Statement g… "I will… https:/…
##  6 Coronavi… 2021-02-24 St Andrew… Statement g… "\nGood… https:/…
##  7 Coronavi… 2021-02-23 Scottish … Statement g… "Presid… https:/…
##  8 Coronavi… 2021-02-22 St Andrew… Statement g… "\nGood… https:/…
##  9 Coronavi… 2021-02-18 St Andrew… Statement g… "\nAs u… https:/…
## 10 Coronavi… 2021-02-17 Scottish … Parliamenta… "I will… https:/…
## 11 Coronavi… 2021-02-16 Scottish … Parliamenta… "Presid… https:/…
## 12 Coronavi… 2021-02-15 St Andrew… Statement g… "\nGood… https:/…
## 13 Coronavi… 2021-02-11 St Andrew… Statement g… "\nGood… https:/…
## 14 Coronavi… 2021-02-10 Scottish … Parliamenta… "I will… https:/…
## 15 Coronavi… 2021-02-09 St Andrew… Statement g… "\nFirs… https:/…
## # … with 192 more rows
```
…
---

## Plan: Get data from all pages

- Write a function that scrapes the data from a single page and returns a data frame with a single row for that page

- Obtain a list of URLs of all pages

- Map the function over the list of all URLs to obtain a data framw where each row is a single speech and the number of rows is the number of speeches

```
## # A tibble: 207 x 6
##   title     date       location   abstract     text      url     
##   <chr>     <date>     <chr>      <chr>        <chr>     <chr>   
## 1 Coronavi… 2021-03-09 Scottish … Statement g… "Presidi… https:/…
## 2 Coronavi… 2021-03-05 Scottish … Parliamenta… "Hello. … https:/…
## 3 Coronavi… 2021-03-04 Scottish … Parliamenta… "I will … https:/…
## 4 Coronavi… 2021-03-02 Scottish … Statement g… "Presidi… https:/…
## 5 Coronavi… 2021-02-25 Scottish … Statement g… "I will … https:/…
## 6 Coronavi… 2021-02-24 St Andrew… Statement g… "\nGood … https:/…
## # … with 201 more rows
```
…
---

## Map the function over all URLs

```r
covid_speeches_scot <- map_dfr(covid_speech_urls_uk_scot, scrape_speech_scot)
```

```r
covid_speeches_scot
```

```
## # A tibble: 207 x 6
##   title     date       location   abstract     text      url     
##   <chr>     <date>     <chr>      <chr>        <chr>     <chr>   
## 1 Coronavi… 2021-03-09 Scottish … Statement g… "Presidi… https:/…
## 2 Coronavi… 2021-03-05 Scottish … Parliamenta… "Hello. … https:/…
## 3 Coronavi… 2021-03-04 Scottish … Parliamenta… "I will … https:/…
## 4 Coronavi… 2021-03-02 Scottish … Statement g… "Presidi… https:/…
## 5 Coronavi… 2021-02-25 Scottish … Statement g… "I will … https:/…
## 6 Coronavi… 2021-02-24 St Andrew… Statement g… "\nGood … https:/…
## # … with 201 more rows
```
…
# Transform and visualise

---

## Filter for First minister speeches

```r
covid_speeches_scot <- covid_speeches_scot %>%
  filter(str_detect(abstract, "First Minister"))

covid_speeches_scot
```

```
## # A tibble: 204 x 6
##   title     date       location   abstract     text      url     
##   <chr>     <date>     <chr>      <chr>        <chr>     <chr>   
## 1 Coronavi… 2021-03-09 Scottish … Statement g… "Presidi… https:/…
## 2 Coronavi… 2021-03-05 Scottish … Parliamenta… "Hello. … https:/…
## 3 Coronavi… 2021-03-04 Scottish … Parliamenta… "I will … https:/…
## 4 Coronavi… 2021-03-02 Scottish … Statement g… "Presidi… https:/…
## 5 Coronavi… 2021-02-25 Scottish … Statement g… "I will … https:/…
## 6 Coronavi… 2021-02-24 St Andrew… Statement g… "\nGood … https:/…
## # … with 198 more rows
```
---

## Count number of words in each speech

```r
covid_speeches_scot <- covid_speeches_scot %>%
  rowwise() %>%
  mutate(n_words = text %>% str_count("\\w+") %>% sum()) %>%
  ungroup()

covid_speeches_scot
```

```
## # A tibble: 204 x 7
##   title    date       location  abstract  text    url     n_words
##   <chr>    <date>     <chr>     <chr>     <chr>   <chr>     <int>
## 1 Coronav… 2021-03-09 Scottish… Statemen… "Presi… https:…    3355
## 2 Coronav… 2021-03-05 Scottish… Parliame… "Hello… https:…    1199
## 3 Coronav… 2021-03-04 Scottish… Parliame… "I wil… https:…     561
## 4 Coronav… 2021-03-02 Scottish… Statemen… "Presi… https:…    2365
## 5 Coronav… 2021-02-25 Scottish… Statemen… "I wil… https:…     700
## 6 Coronav… 2021-02-24 St Andre… Statemen… "\nGoo… https:…    2466
## # … with 198 more rows
```
…
]
.pull-right[
<img src="img/tidytext.png" width="60%" style="display: block; margin: auto auto auto 0;" />
]

---

## Tokenize speeches by word

.panelset[
.panel[.panel-name[Plot]

```
## # A tibble: 422,860 x 7
##   date       word   title    location  abstract   url     n_words
##   <date>     <chr>  <chr>    <chr>     <chr>      <chr>     <int>
## 1 2021-03-09 presi… Coronav… Scottish… Statement… https:…    3355
## 2 2021-03-09 offic… Coronav… Scottish… Statement… https:…    3355
## 3 2021-03-09 i      Coronav… Scottish… Statement… https:…    3355
## 4 2021-03-09 will   Coronav… Scottish… Statement… https:…    3355
## 5 2021-03-09 update Coronav… Scottish… Statement… https:…    3355
## 6 2021-03-09 parli… Coronav… Scottish… Statement… https:…    3355
## # … with 422,854 more rows
```
…
---

## Tokenize into sentences

```r
covid_speeches_sentences <- covid_speeches %>%
  unnest_tokens(sentence, text, token = "sentences")

covid_speeches_sentences %>%
  relocate(sentence)
```

```
## # A tibble: 20,445 x 4
##   sentence                            speech_id date       origin
##   <chr>                               <chr>     <date>     <fct> 
## 1 presiding officer i will update pa… 1         2021-03-09 Scotl…
## 2 these changes relate to outdoor me… 1         2021-03-09 Scotl…
## 3 i will also announce a change whic… 1         2021-03-09 Scotl…
## 4 now while the changes i set out to… 1         2021-03-09 Scotl…
## 5 and they do represent gradual, but… 1         2021-03-09 Scotl…
## 6 next week, i will set out a firmer… 1         2021-03-09 Scotl…
## # … with 20,439 more rows
```
…
## Perform cross-validation

```r
set.seed(1234)
covid_folds <- vfold_cv(covid_train, v = 10, strata = origin)
```

```r
covid_folds
```

```
## #  10-fold cross-validation using stratification 
## # A tibble: 10 x 2
##   splits               id    
##   <list>               <chr> 
## 1 <split [13800/1534]> Fold01
## 2 <split [13800/1534]> Fold02
## 3 <split [13800/1534]> Fold03
## 4 <split [13800/1534]> Fold04
## 5 <split [13801/1533]> Fold05
## 6 <split [13801/1533]> Fold06
## # … with 4 more rows
```
…
## Make predictions for test data

```r
covid_fit <- covid_wflow %>%
  fit(data = covid_train)

covid_test_pred <- predict(covid_fit, new_data = covid_test, type = "prob") %>%
  bind_cols(covid_test %>% select(origin, speech_id, sentence))

covid_test_pred
```

```
## # A tibble: 5,111 x 5
##   .pred_Scotland .pred_UK origin  speech_id sentence             
##            <dbl>    <dbl> <fct>   <chr>     <chr>                
## 1          0.927   0.0726 Scotla… 1         i will though be spe…
## 2          0.961   0.0387 Scotla… 1         and the total number…
## 3          0.905   0.0950 Scotla… 1         and then in two week…
## 4          0.884   0.116  Scotla… 1         current plans for 23…
## 5          0.940   0.0599 Scotla… 1         in addition, i know …
## 6          0.940   0.0599 Scotla… 1         and so i think it is…
## # … with 5,105 more rows
```
…
```
## # A tibble: 1 x 3
##   .metric .estimator .estimate
##   <chr>   <chr>          <dbl>
## 1 roc_auc binary         0.762
```

```r
covid_test_pred %>% 
  filter(origin == "Scotland", .pred_UK > 0.5)
```

```
## # A tibble: 14 x 5
##   .pred_Scotland .pred_UK origin  speech_id sentence             
##            <dbl>    <dbl> <fct>   <chr>     <chr>                
## 1          0.351    0.649 Scotla… 19        we must guard agains…
## 2          0.472    0.528 Scotla… 37        and if that happens,…
## 3          0.346    0.654 Scotla… 51        we are seeing simila…
## 4          0.354    0.646 Scotla… 58        we must drive the in…
## 5          0.408    0.592 Scotla… 68        the chancellors’ com…
## 6          0.470    0.530 Scotla… 105       i will announce furt…
## # … with 8 more rows
```
…
### Possible set of hyperparameters

```r
param_grid <- grid_regular(
  penalty(range = c(-4, 0)),
  max_tokens(range = c(500, 2000)),
  levels = 5
)

param_grid
```

```
## # A tibble: 25 x 2
##   penalty max_tokens
##     <dbl>      <int>
## 1  0.0001        500
## 2  0.001         500
## 3  0.01          500
## 4  0.1           500
## 5  1             500
## 6  0.0001        875
## # … with 19 more rows
```
…
```r
covid_fit_rs_tune
```

```
## Warning: This tuning result has notes. Example notes on model fitting include:
## preprocessor 2/5, model 1/1 (predictions): partial argument match of 'along' to 'along.with'
## preprocessor 1/5, model 1/1 (predictions): partial argument match of 'along' to 'along.with'
## preprocessor 5/5, model 1/1 (predictions): partial argument match of 'along' to 'along.with'
```

```
## # Tuning results
## # 10-fold cross-validation using stratification 
## # A tibble: 10 x 5
##   splits         id     .metrics     .notes      .predictions    
##   <list>         <chr>  <list>       <list>      <list>          
## 1 <split [13800… Fold01 <tibble [50… <tibble [5… <tibble [38,350…
## 2 <split [13800… Fold02 <tibble [50… <tibble [5… <tibble [38,350…
## 3 <split [13800… Fold03 <tibble [50… <tibble [5… <tibble [38,350…
## 4 <split [13800… Fold04 <tibble [50… <tibble [5… <tibble [38,350…
## 5 <split [13801… Fold05 <tibble [50… <tibble [5… <tibble [38,325…
## 6 <split [13801… Fold06 <tibble [50… <tibble [5… <tibble [38,325…
## # … with 4 more rows
```
…
vi_data <- covid_wflow_final %>%
  fit(covid_train) %>%
  pull_workflow_fit() %>%
  vi(lambda = best_roc_auc$penalty) %>%
  mutate(Variable = str_remove_all(Variable, "tfidf_sentence_")) %>%
  filter(Importance != 0)
```

```r
vi_data
```

```
## # A tibble: 1,088 x 3
##   Variable     Importance Sign 
##   <chr>             <dbl> <chr>
## 1 covid_secure      14.9  POS  
## 2 scotland           8.29 NEG  
## 3 coronavirus        7.34 POS  
## 4 british            7.29 POS  
## 5 r                  6.59 POS  
## 6 r_number           6.55 NEG  
## # … with 1,082 more rows
```
…
