…
View words with high TF-IDF

``` r
covid_speeches_tf_ifd %>%
  select(-total) %>%
  arrange(desc(tf_idf))
```

    ## # A tibble: 11,130 x 6
    ## # Groups:   origin [2]
    ##    origin   word            n       tf   idf   tf_idf
    ##    <chr>    <chr>       <int>    <dbl> <dbl>    <dbl>
    ##  1 Scotland aberdeen      154 0.00144  0.693 0.000998
    ##  2 UK       slide          34 0.00137  0.693 0.000946
    ##  3 UK       defeat         30 0.00120  0.693 0.000835
    ##  4 Scotland measurement   125 0.00117  0.693 0.000810
    ##  5 UK       sir            28 0.00112  0.693 0.000779
    ##  6 Scotland lanarkshire   119 0.00111  0.693 0.000771
    ##  7 Scotland clyde         106 0.000991 0.693 0.000687
    ##  8 Scotland cluster        97 0.000907 0.693 0.000629
    ##  9 UK       ventilators    22 0.000883 0.693 0.000612
    ## 10 UK       speaker        21 0.000843 0.693 0.000585
    ## # … with 11,120 more rows
…
