…
View words with high TF-IDF

``` r
covid_speeches_tf_ifd %>%
  select(-total) %>%
  arrange(desc(tf_idf))
```

    ## # A tibble: 12,183 x 6
    ## # Groups:   origin [2]
    ##    origin   word            n       tf   idf   tf_idf
    ##    <chr>    <chr>       <int>    <dbl> <dbl>    <dbl>
    ##  1 UK       slide          34 0.000516 0.693 0.000357
    ##  2 Scotland aberdeen      154 0.000474 0.693 0.000329
    ##  3 UK       defeat         30 0.000455 0.693 0.000315
    ##  4 UK       sir            28 0.000425 0.693 0.000294
    ##  5 Scotland measurement   125 0.000385 0.693 0.000267
    ##  6 Scotland lanarkshire   119 0.000366 0.693 0.000254
    ##  7 UK       ventilators    22 0.000334 0.693 0.000231
    ##  8 Scotland clyde         106 0.000326 0.693 0.000226
    ##  9 UK       speaker        21 0.000318 0.693 0.000221
    ## 10 Scotland cluster        97 0.000299 0.693 0.000207
    ## # … with 12,173 more rows
…
