…
View words with high TF-IDF

``` r
covid_speeches_tf_ifd %>%
  select(-total) %>%
  arrange(desc(tf_idf))
```

    ## # A tibble: 12,074 x 6
    ## # Groups:   origin [2]
    ##    origin   word            n       tf   idf   tf_idf
    ##    <chr>    <chr>       <int>    <dbl> <dbl>    <dbl>
    ##  1 Scotland registered    346 0.000818 0.693 0.000567
    ##  2 Scotland glasgow       217 0.000513 0.693 0.000356
    ##  3 UK       slide          21 0.000481 0.693 0.000333
    ##  4 UK       speaker        21 0.000481 0.693 0.000333
    ##  5 Scotland suspected     192 0.000454 0.693 0.000315
    ##  6 Scotland aberdeen      171 0.000404 0.693 0.000280
    ##  7 Scotland usual         171 0.000404 0.693 0.000280
    ##  8 Scotland measurement   168 0.000397 0.693 0.000275
    ##  9 Scotland issues        157 0.000371 0.693 0.000257
    ## 10 Scotland lanarkshire   144 0.000341 0.693 0.000236
    ## # … with 12,064 more rows
…
